Visualizing Networks
…
`tidygraph` and `ggraph` allow you to **deal with network objects** in a manner that is more consistent with the commands used for **working with tibbles and data frames**. However, the true promise of `tidygraph` and `ggrap`h is that they **leverage the power of igraph**.

```r
# Load the packages
library(tidygraph)
library(ggraph)

# Load some Data (from Jesse Sadler)
letters <- read_csv("data/Dutch_letters/correspondence-data-1585.csv")
letters
```

```
## # A tibble: 114 x 4
##    writer                  source  destination date      
##    <chr>                   <chr>   <chr>       <date>    
##  1 Meulen, Andries van der Antwerp Delft       1585-01-03
##  2 Meulen, Andries van der Antwerp Haarlem     1585-01-09
##  3 Meulen, Andries van der Antwerp Haarlem     1585-01-11
##  4 Meulen, Andries van der Antwerp Delft       1585-01-12
##  5 Meulen, Andries van der Antwerp Haarlem     1585-01-12
##  6 Meulen, Andries van der Antwerp Delft       1585-01-17
##  7 Meulen, Andries van der Antwerp Delft       1585-01-22
##  8 Meulen, Andries van der Antwerp Delft       1585-01-23
##  9 Della Faille, Marten    Antwerp Haarlem     1585-01-24
## 10 Meulen, Andries van der Antwerp Delft       1585-01-28
## # … with 104 more rows
```
…
---

# Where are the tweets from?

```r
count(usa, place_full_name, sort=TRUE)
```

```
## # A tibble: 598 x 2
##    place_full_name       n
##    <chr>             <int>
##  1 Los Angeles, CA      47
##  2 Houston, TX          25
##  3 Brooklyn, NY         19
##  4 Chicago, IL          19
##  5 Florida, USA         17
##  6 Manhattan, NY        14
##  7 Georgia, USA         13
##  8 Toronto, Ontario     12
##  9 Nashville, TN        11
## 10 San Francisco, CA    11
## # … with 588 more rows
```

---

# What are the tweets about?

```r
unnest(usa, hashtags) %>% 
  count(hashtags, sort=TRUE) %>% 
  filter(!is.na(hashtags))
```

```
## # A tibble: 131 x 2
##    hashtags                      n
##    <chr>                     <int>
##  1 COVID19                       3
##  2 Nursing                       3
##  3 realestate                    3
##  4 OH                            2
##  5 1DOnlineConcertStayAtHome     1
##  6 alcohol                       1
##  7 ALPHAL20N                     1
##  8 Art                           1
##  9 Austin                        1
## 10 autowa                        1
## # … with 121 more rows
```
…
