Visualization with Maps I
…
# The maps package has geographic information on all U.S states
us.states <- map_data("state")
us.states <- as_data_frame(us.states)
us.states <- dplyr::rename(us.states, state = region)
us.states$subregion = NULL
us.states$state <- str_to_title(us.states$state)

us.states
```

```
## # A tibble: 15,537 x 5
##     long   lat group order state  
##    <dbl> <dbl> <dbl> <int> <chr>  
##  1 -87.5  30.4     1     1 Alabama
##  2 -87.5  30.4     1     2 Alabama
##  3 -87.5  30.4     1     3 Alabama
##  4 -87.5  30.3     1     4 Alabama
##  5 -87.6  30.3     1     5 Alabama
##  6 -87.6  30.3     1     6 Alabama
##  7 -87.6  30.3     1     7 Alabama
##  8 -87.6  30.3     1     8 Alabama
##  9 -87.7  30.3     1     9 Alabama
## 10 -87.8  30.3     1    10 Alabama
## # … with 15,527 more rows
```
…
elecstate <- elecstate %>% mutate_each_(funs(as.numeric), 
                                        vars=c("Trump","Clinton"))
elecstate <- mutate(elecstate, R.D = ifelse(Trump > 50, "R", "D"))
elecstate
```

```
## # A tibble: 51 x 4
##    state       Clinton Trump R.D  
##    <chr>         <dbl> <dbl> <chr>
##  1 Alabama        35.6  64.4 R    
##  2 Alaska         41.6  58.4 R    
##  3 Arizona        48.1  51.9 R    
##  4 Arkansas       35.7  64.3 R    
##  5 California     66.1  33.9 D    
##  6 Colorado       52.7  47.3 D    
##  7 Connecticut    57.1  42.9 D    
##  8 Delaware       56.0  44.0 D    
##  9 Florida        49.4  50.6 R    
## 10 Georgia        47.3  52.7 R    
## # … with 41 more rows
```
…
# Data frames vs. spatial objects

---

## Data frames vs. spatial objects

The elecotoral data we used above were stored in a normal data frame.

```r
elecstate.merged 
```

```
## # A tibble: 15,530 x 11
##    state Clinton Trump R.D    long   lat group order state.abb state.center.x
##    <chr>   <dbl> <dbl> <chr> <dbl> <dbl> <dbl> <int> <chr>              <dbl>
##  1 Alab…    35.6  64.4 R     -87.5  30.4     1     1 AL                 -86.8
##  2 Alab…    35.6  64.4 R     -87.5  30.4     1     2 AL                 -86.8
##  3 Alab…    35.6  64.4 R     -87.5  30.4     1     3 AL                 -86.8
##  4 Alab…    35.6  64.4 R     -87.5  30.3     1     4 AL                 -86.8
##  5 Alab…    35.6  64.4 R     -87.6  30.3     1     5 AL                 -86.8
##  6 Alab…    35.6  64.4 R     -87.6  30.3     1     6 AL                 -86.8
##  7 Alab…    35.6  64.4 R     -87.6  30.3     1     7 AL                 -86.8
##  8 Alab…    35.6  64.4 R     -87.6  30.3     1     8 AL                 -86.8
##  9 Alab…    35.6  64.4 R     -87.7  30.3     1     9 AL                 -86.8
## 10 Alab…    35.6  64.4 R     -87.8  30.3     1    10 AL                 -86.8
## # … with 15,520 more rows, and 1 more variable: state.center.y <dbl>
```
…
