…
------------------------------------------------------------------------

Sparklines
==========

``` r
## Get quartile ranges for plot
d <- d %>% group_by(Crime.Type) %>%
  mutate(quart1 = quantile(Crime.Rate, probs = 0.25),
         quart2 = quantile(Crime.Rate, probs = 0.75))
d
```

    ## # A tibble: 550 x 5
    ## # Groups:   Crime.Type [10]
    ##     Year Crime.Type Crime.Rate quart1 quart2
    ##    <int> <chr>           <dbl>  <dbl>  <dbl>
    ##  1  1960 Total            1887   3418   5292
    ##  2  1961 Total            1906   3418   5292
    ##  3  1962 Total            2020   3418   5292
    ##  4  1963 Total            2180   3418   5292
    ##  5  1964 Total            2388   3418   5292
    ##  6  1965 Total            2449   3418   5292
    ##  7  1966 Total            2671   3418   5292
    ##  8  1967 Total            2990   3418   5292
    ##  9  1968 Total            3370   3418   5292
    ## 10  1969 Total            3680   3418   5292
    ## # ... with 540 more rows
…
