Text Mining I
…
```r
# Get meta data
meta <- as_data_frame(str_split_fixed(sotu_td$document, "_", n=3))
colnames(meta) <- c("president", "year", "party")
  
# Merge on
sotu_td <- as_data_frame(cbind(sotu_td, meta))

# Show
sotu_td  # note: only the non-zero values are included
```

```
## # A tibble: 274,327 x 6
##    term         document                    count president      year  party    
##    <chr>        <chr>                       <dbl> <chr>          <chr> <chr>    
##  1 abroad       George Washington_1790_Ind…     1 George Washin… 1790  Independ…
##  2 access       George Washington_1790_Ind…     1 George Washin… 1790  Independ…
##  3 accord       George Washington_1790_Ind…     1 George Washin… 1790  Independ…
##  4 add          George Washington_1790_Ind…     1 George Washin… 1790  Independ…
##  5 adequacy     George Washington_1790_Ind…     1 George Washin… 1790  Independ…
##  6 administrat… George Washington_1790_Ind…     1 George Washin… 1790  Independ…
##  7 admit        George Washington_1790_Ind…     1 George Washin… 1790  Independ…
##  8 adopt        George Washington_1790_Ind…     1 George Washin… 1790  Independ…
##  9 advance      George Washington_1790_Ind…     1 George Washin… 1790  Independ…
## 10 affair       George Washington_1790_Ind…     3 George Washin… 1790  Independ…
## # … with 274,317 more rows
```
…
